Find the sum of selected columns within a row — row_sum • OuhscMunge
…
#> - wk63
#> - wk64
#> - wk65
#> - wk66
#> - wk67
#> - wk68
#> - wk69
#> - wk70
#> - wk71
#> - wk72
#> - wk73
#> - wk74
#> - wk75
#> - wk76
#> # A tibble: 317 × 3
#>    artist         date.entered week_sum
#>    <chr>          <date>          <dbl>
#>  1 2 Pac          2000-02-26         NA
#>  2 2Ge+her        2000-09-02         NA
#>  3 3 Doors Down   2000-04-08       1403
#>  4 3 Doors Down   2000-10-21       1342
#>  5 504 Boyz       2000-04-15       1012
#>  6 98^0           2000-08-19        753
#>  7 A*Teens        2000-07-08         NA
#>  8 Aaliyah        2000-01-29       1041
#>  9 Aaliyah        2000-03-18        533
#> 10 Adams, Yolanda 2000-08-26       1355
#> # ℹ 307 more rows
…
      artist,
      date.entered,
      week_sum,
    )
#> The following columns will be summed:
#> - wk1
#> - wk2
#> - wk3
#> - wk4
#> - wk5
#> - wk6
#> - wk7
#> - wk8
#> - wk9
#> # A tibble: 317 × 3
#>    artist         date.entered week_sum
#>    <chr>          <date>          <dbl>
#>  1 2 Pac          2000-02-26        598
#>  2 2Ge+her        2000-09-02         NA
#>  3 3 Doors Down   2000-04-08        567
#>  4 3 Doors Down   2000-10-21        601
#>  5 504 Boyz       2000-04-15        319
#>  6 98^0           2000-08-19        202
#>  7 A*Teens        2000-07-08         NA
#>  8 Aaliyah        2000-01-29        422
#>  9 Aaliyah        2000-03-18        259
#> 10 Adams, Yolanda 2000-08-26        606
#> # ℹ 307 more rows
…
